\contentsline {chapter}{\numberline {1}Cronologia}{2}{chapter.1}%
\contentsline {chapter}{\numberline {2}Entornos web}{4}{chapter.2}%
\contentsline {chapter}{\numberline {3}Acceso a información}{5}{chapter.3}%
\contentsline {chapter}{\numberline {4}Servidor web}{6}{chapter.4}%
\contentsline {chapter}{\numberline {5}Caracteristicas de HTML}{7}{chapter.5}%
\contentsline {chapter}{\numberline {6}Estructura HTML}{8}{chapter.6}%
\contentsline {chapter}{\numberline {7}Tipo de documento}{9}{chapter.7}%
