\BOOKMARK [0][-]{chapter.1}{Cronologia}{}% 1
\BOOKMARK [0][-]{chapter.2}{Entornos web}{}% 2
\BOOKMARK [0][-]{chapter.3}{Acceso a informaci\363n}{}% 3
\BOOKMARK [0][-]{chapter.4}{Servidor web}{}% 4
\BOOKMARK [0][-]{chapter.5}{Caracteristicas de HTML}{}% 5
\BOOKMARK [0][-]{chapter.6}{Estructura HTML}{}% 6
\BOOKMARK [0][-]{chapter.7}{Tipo de documento}{}% 7
