\relax 
\@writefile{toc}{\contentsline {section}{\numberline {0.1}Espacios Verticales}{1}}
\@writefile{toc}{\contentsline {section}{\numberline {0.2}P\IeC {\'a}rrafos}{1}}
\@writefile{toc}{\contentsline {subsection}{\numberline {0.2.1}Centrado}{1}}
