\relax 
\@writefile{toc}{\contentsline {section}{\numberline {1}Modo matiem\IeC {\'a}tico b\IeC {\'a}sico}{1}}
\@writefile{toc}{\contentsline {section}{\numberline {2}Ejercicio integrales}{1}}
\@writefile{toc}{\contentsline {section}{\numberline {3}Raices}{1}}
\@writefile{toc}{\contentsline {section}{\numberline {4}Matriz y array}{1}}
\@writefile{toc}{\contentsline {section}{\numberline {5}Tablas}{2}}
\@writefile{toc}{\contentsline {section}{\numberline {6}Agrupacion en Vertical}{2}}
