\relax 
\@writefile{toc}{\contentsline {section}{\numberline {1}Tipos de programas inform\IeC {\'a}ticos}{2}}
\@writefile{toc}{\contentsline {section}{\numberline {2}C\IeC {\'o}digo fuente, objeto y ejecutable}{3}}
