\contentsline {part}{I\hspace {1em}Primera parte}{2}{part.1}
\contentsline {chapter}{\numberline {1}El primer capitulo}{3}{chapter.1}
\contentsline {section}{\numberline {1.1}Primer capitulo - Secci\IeC {\'o}n primera}{3}{section.1.1}
\contentsline {section}{\numberline {1.2}Primer capitulo - secci\IeC {\'o}n segunda}{3}{section.1.2}
\contentsline {paragraph}{Primer capitulo - secci\IeC {\'o}n segunda - parrafo}{3}{section*.2}
\contentsline {subparagraph}{Primer capitulo - secci\IeC {\'o}n segunda - subparrafo}{3}{section*.3}
\contentsline {subsection}{\numberline {1.2.1}Primer capitulo - secci\IeC {\'o}n segunda - Subsecc1}{3}{subsection.1.2.1}
\contentsline {subsubsection}{Primer capitulo - secci\IeC {\'o}n segunda - subSubsecc1}{3}{section*.4}
\contentsline {subsection}{\numberline {1.2.2}Primer capitulo - secci\IeC {\'o}n segunda - Subsecc2}{3}{subsection.1.2.2}
\contentsline {section}{\numberline {1.3}Primer capitulo - secci\IeC {\'o}n tercera}{3}{section.1.3}
