\relax 
\providecommand\hyper@newdestlabel[2]{}
\providecommand\HyperFirstAtBeginDocument{\AtBeginDocument}
\HyperFirstAtBeginDocument{\ifx\hyper@anchor\@undefined
\global\let\oldcontentsline\contentsline
\gdef\contentsline#1#2#3#4{\oldcontentsline{#1}{#2}{#3}}
\global\let\oldnewlabel\newlabel
\gdef\newlabel#1#2{\newlabelxx{#1}#2}
\gdef\newlabelxx#1#2#3#4#5#6{\oldnewlabel{#1}{{#2}{#3}}}
\AtEndDocument{\ifx\hyper@anchor\@undefined
\let\contentsline\oldcontentsline
\let\newlabel\oldnewlabel
\fi}
\fi}
\global\let\hyper@last\relax 
\gdef\HyperFirstAtBeginDocument#1{#1}
\providecommand\HyField@AuxAddToFields[1]{}
\providecommand\HyField@AuxAddToCoFields[2]{}
\@writefile{toc}{\contentsline {part}{I\hspace  {1em}Primera parte}{2}{part.1}}
\@writefile{toc}{\contentsline {chapter}{\numberline {1}El primer capitulo}{3}{chapter.1}}
\@writefile{lof}{\addvspace {10\p@ }}
\@writefile{lot}{\addvspace {10\p@ }}
\@writefile{toc}{\contentsline {section}{\numberline {1.1}Primer capitulo - Secci\IeC {\'o}n primera}{3}{section.1.1}}
\@writefile{toc}{\contentsline {section}{\numberline {1.2}Primer capitulo - secci\IeC {\'o}n segunda}{3}{section.1.2}}
\@writefile{toc}{\contentsline {paragraph}{Primer capitulo - secci\IeC {\'o}n segunda - parrafo}{3}{section*.2}}
\@writefile{toc}{\contentsline {subparagraph}{Primer capitulo - secci\IeC {\'o}n segunda - subparrafo}{3}{section*.3}}
\@writefile{toc}{\contentsline {subsection}{\numberline {1.2.1}Primer capitulo - secci\IeC {\'o}n segunda - Subsecc1}{3}{subsection.1.2.1}}
\@writefile{toc}{\contentsline {subsubsection}{Primer capitulo - secci\IeC {\'o}n segunda - subSubsecc1}{3}{section*.4}}
\@writefile{toc}{\contentsline {subsection}{\numberline {1.2.2}Primer capitulo - secci\IeC {\'o}n segunda - Subsecc2}{3}{subsection.1.2.2}}
\@writefile{toc}{\contentsline {section}{\numberline {1.3}Primer capitulo - secci\IeC {\'o}n tercera}{3}{section.1.3}}
